…
## Exercise 1: `singer`

The package `singer` comes with two smallish data frames about songs. Let's take a look at them (after minor modifications by renaming and shuffling):


```r
(time <- as_tibble(songs) %>% 
   rename(song = title))
```

```
## # A tibble: 22 x 3
##    song                             artist_name      year
##    <chr>                            <chr>           <int>
##  1 Corduroy                         Pearl Jam        1994
##  2 Grievance                        Pearl Jam        2000
##  3 Stupidmop                        Pearl Jam        1994
##  4 Present Tense                    Pearl Jam        1996
##  5 MFC                              Pearl Jam        1998
##  6 Lukin                            Pearl Jam        1996
##  7 It's Lulu                        The Boo Radleys  1995
##  8 Sparrow                          The Boo Radleys  1992
##  9 Martin_ Doom! It's Seven O'Clock The Boo Radleys  1995
## 10 Leaves And Sand                  The Boo Radleys  1993
## # … with 12 more rows
```
…
